…
- Once all the objects from the pipeline have been created, we can Run
  this Markdown report pressing “Run” in the
  report_populated_targets_output.Rmd file and finally, by pressing the
  “knit” button, we will obtain the rendered document, in this instance
  is a github document, but it can also be rendered ad HTML, PDF or Word
  document.

## Data all files combined

We check the final data frame imported from Excel file with AE
Attendances Type I, Type II and Type II data.

``` r
tar_read(clean_ATT_data) 
## # A tibble: 164 × 4
##    date       AE_att_TypeI AE_att_TypeII AE_att_TypeIII
##    <date>            <int>         <int>          <int>
##  1 2010-08-01      1138652         54371         559358
##  2 2010-09-01      1150728         55181         550359
##  3 2010-10-01      1163143         54961         583244
##  4 2010-11-01      1111294         53727         486005
##  5 2010-12-01      1159203         45536         533000
##  6 2011-01-01      1133880         51584         542331
##  7 2011-02-01      1053707         51249         494407
##  8 2011-03-01      1225221         57900         580318
##  9 2011-04-01      1197212         54042         593119
## 10 2011-05-01      1221687         57066         594940
## # ℹ 154 more rows
```
…
