…
``` r
source_all("R")
```

## Data all files combined

We check the final data frame created in the pipeline after merging all
three Attendances files

``` r
tar_read(one_two_combined) 
## # A tibble: 162 × 3
##    Period Type1_ATT Type2_ATT
##    <chr>      <dbl>     <dbl>
##  1 Aug-10   1138652     54371
##  2 Sep-10   1150728     55181
##  3 Oct-10   1163143     54961
##  4 Nov-10   1111295     53727
##  5 Dec-10   1159204     45536
##  6 Jan-11   1133881     51585
##  7 Feb-11   1053707     51249
##  8 Mar-11   1225222     57900
##  9 Apr-11   1197213     54042
## 10 May-11   1221687     57067
## # ℹ 152 more rows
```
…
