…
And this time for this Markdown report we have processed first using
Targets. The first Target object we have created in this pipeline is
called `clean_ATT_data` after cleansing and importing the original .xsl
file we had in our imput folder.

Use **echo=TRUE** to display both the *code* and *output* of the R code
chunk, as in the example below:

``` r
# Read csv file
tar_read(clean_ATT_data)
```

    ## # A tibble: 164 × 4
    ##    date       AE_att_TypeI AE_att_TypeII AE_att_TypeIII
    ##    <date>            <int>         <int>          <int>
    ##  1 2010-08-01      1138652         54371         559358
    ##  2 2010-09-01      1150728         55181         550359
    ##  3 2010-10-01      1163143         54961         583244
    ##  4 2010-11-01      1111294         53727         486005
    ##  5 2010-12-01      1159203         45536         533000
    ##  6 2011-01-01      1133880         51584         542331
    ##  7 2011-02-01      1053707         51249         494407
    ##  8 2011-03-01      1225221         57900         580318
    ##  9 2011-04-01      1197212         54042         593119
    ## 10 2011-05-01      1221687         57066         594940
    ## # ℹ 154 more rows

To populate the inline text, we can load this Target object
**clean_ATT_data** into our R Environment using `tar_load()` function,
`tar_load(clean_ATT_data)`

``` r
tar_load(clean_ATT_data)
# Assign data frame from Targets to new object called AE_data
AE_data <- clean_ATT_data
AE_data
```

    ## # A tibble: 164 × 4
    ##    date       AE_att_TypeI AE_att_TypeII AE_att_TypeIII
    ##    <date>            <int>         <int>          <int>
    ##  1 2010-08-01      1138652         54371         559358
    ##  2 2010-09-01      1150728         55181         550359
    ##  3 2010-10-01      1163143         54961         583244
    ##  4 2010-11-01      1111294         53727         486005
    ##  5 2010-12-01      1159203         45536         533000
    ##  6 2011-01-01      1133880         51584         542331
    ##  7 2011-02-01      1053707         51249         494407
    ##  8 2011-03-01      1225221         57900         580318
    ##  9 2011-04-01      1197212         54042         593119
    ## 10 2011-05-01      1221687         57066         594940
    ## # ℹ 154 more rows
…
``` r
names(AE_data)
```

    ## [1] "date"           "AE_att_TypeI"   "AE_att_TypeII"  "AE_att_TypeIII"

``` r
AE_data
```

    ## # A tibble: 164 × 4
    ##    date       AE_att_TypeI AE_att_TypeII AE_att_TypeIII
    ##    <date>            <int>         <int>          <int>
    ##  1 2010-08-01      1138652         54371         559358
    ##  2 2010-09-01      1150728         55181         550359
    ##  3 2010-10-01      1163143         54961         583244
    ##  4 2010-11-01      1111294         53727         486005
    ##  5 2010-12-01      1159203         45536         533000
    ##  6 2011-01-01      1133880         51584         542331
    ##  7 2011-02-01      1053707         51249         494407
    ##  8 2011-03-01      1225221         57900         580318
    ##  9 2011-04-01      1197212         54042         593119
    ## 10 2011-05-01      1221687         57066         594940
    ## # ℹ 154 more rows
…
``` r
## [1] "date"           "AE_att_TypeI"   "AE_att_TypeII"  "AE_att_TypeIII"
#   Pivot longer
AE_data_pivot <- AE_data

AE_data_pivot
```

    ## # A tibble: 164 × 4
    ##    date       AE_att_TypeI AE_att_TypeII AE_att_TypeIII
    ##    <date>            <int>         <int>          <int>
    ##  1 2010-08-01      1138652         54371         559358
    ##  2 2010-09-01      1150728         55181         550359
    ##  3 2010-10-01      1163143         54961         583244
    ##  4 2010-11-01      1111294         53727         486005
    ##  5 2010-12-01      1159203         45536         533000
    ##  6 2011-01-01      1133880         51584         542331
    ##  7 2011-02-01      1053707         51249         494407
    ##  8 2011-03-01      1225221         57900         580318
    ##  9 2011-04-01      1197212         54042         593119
    ## 10 2011-05-01      1221687         57066         594940
    ## # ℹ 154 more rows

``` r
AE_data_long <- AE_data_pivot %>% 
                pivot_longer(names_to = "Type",
                                  cols = 2:ncol(AE_data_pivot))
AE_data_long
```

    ## # A tibble: 492 × 3
    ##    date       Type             value
    ##    <date>     <chr>            <int>
    ##  1 2010-08-01 AE_att_TypeI   1138652
    ##  2 2010-08-01 AE_att_TypeII    54371
    ##  3 2010-08-01 AE_att_TypeIII  559358
    ##  4 2010-09-01 AE_att_TypeI   1150728
    ##  5 2010-09-01 AE_att_TypeII    55181
    ##  6 2010-09-01 AE_att_TypeIII  550359
    ##  7 2010-10-01 AE_att_TypeI   1163143
    ##  8 2010-10-01 AE_att_TypeII    54961
    ##  9 2010-10-01 AE_att_TypeIII  583244
    ## 10 2010-11-01 AE_att_TypeI   1111294
    ## # ℹ 482 more rows
Then we can plot the data by Attendances type.

- How to control the amount of break and minor breaks to display with
  *date_breaks* and *date_minor_breaks*:
  <https://r-graph-gallery.com/279-plotting-time-series-with-ggplot2.html>
- Also this is an example of a Stacked area chart:
  <https://r-graph-gallery.com/136-stacked-area-chart.html>

``` r
data_area_chart <- AE_data_long %>% 
                   select(date,Type,value) 
data_area_chart
```

    ## # A tibble: 492 × 3
    ##    date       Type             value
    ##    <date>     <chr>            <int>
    ##  1 2010-08-01 AE_att_TypeI   1138652
    ##  2 2010-08-01 AE_att_TypeII    54371
    ##  3 2010-08-01 AE_att_TypeIII  559358
    ##  4 2010-09-01 AE_att_TypeI   1150728
    ##  5 2010-09-01 AE_att_TypeII    55181
    ##  6 2010-09-01 AE_att_TypeIII  550359
    ##  7 2010-10-01 AE_att_TypeI   1163143
    ##  8 2010-10-01 AE_att_TypeII    54961
    ##  9 2010-10-01 AE_att_TypeIII  583244
    ## 10 2010-11-01 AE_att_TypeI   1111294
    ## # ℹ 482 more rows
…
